NHGIS API Requests
…
Note that for time series tables, some metadata fields are stored in
list columns, where each entry is itself a data frame:

tst$years[[1]]
#> # A tibble: 24 × 3
#>    name  description sequence
#>    <chr> <chr>          <int>
#>  1 1790  1790               1
#>  2 1800  1800               2
#>  3 1810  1810               3
#>  4 1820  1820               4
#>  5 1830  1830               5
#>  6 1840  1840               6
#>  7 1850  1850               7
#>  8 1860  1860               8
#>  9 1870  1870              12
#> 10 1880  1880              22
#> # ℹ 14 more rows
…
Detailed metadata

Once we have identified a data source of interest, we can find out
more about its detailed options by providing its name to the
corresponding argument of get_metadata_nhgis():

cAg_meta <- get_metadata_nhgis(dataset = "1900_cAg")

This provides a comprehensive list of the possible specifications for
the input data source. For instance, for the 1900_cAg dataset, we have
66 tables to choose from, and 3 possible geographic levels:

cAg_meta$data_tables
#> # A tibble: 66 × 4
#>    name  nhgis_code description                           sequence
#>    <chr> <chr>      <chr>                                    <int>
#>  1 NT1   AWS        Total Population                             1
#>  2 NT2   AW3        Number of Farms                              2
#>  3 NT3   AXE        Average Farm Size                            3
#>  4 NT4   AXP        Farm Acreage                                 4
#>  5 NT5   AXZ        Farm Management                              5
#>  6 NT6   AYA        Race of Farmer                               6
#>  7 NT7   AYJ        Race of Farmer by Detailed Management        7
#>  8 NT8   AYK        Number of Farms                              8
#>  9 NT9   AYL        Farms with Buildings                         9
#> 10 NT10  AWT        Acres of Farmland                           10
#> # ℹ 56 more rows
…
When you define an extract request, you can specify the data to be
included in the extract and indicate the desired format and layout.

Basic extract definitions

Let’s say we’re interested in getting state-level data on the number
of farms and their average size from the 1900_cAg dataset that we
identified above. As we can see in the metadata, these data are
contained in tables NT2 and NT3:

cAg_meta$data_tables
#> # A tibble: 66 × 4
#>    name  nhgis_code description                           sequence
#>    <chr> <chr>      <chr>                                    <int>
#>  1 NT1   AWS        Total Population                             1
#>  2 NT2   AW3        Number of Farms                              2
#>  3 NT3   AXE        Average Farm Size                            3
#>  4 NT4   AXP        Farm Acreage                                 4
#>  5 NT5   AXZ        Farm Management                              5
#>  6 NT6   AYA        Race of Farmer                               6
#>  7 NT7   AYJ        Race of Farmer by Detailed Management        7
#>  8 NT8   AYK        Number of Farms                              8
#>  9 NT9   AYL        Farms with Buildings                         9
#> 10 NT10  AWT        Acres of Farmland                           10
#> # ℹ 56 more rows
…
