Reading IPUMS Data
…
Hierarchical data have records of different types interspersed in a
single file. For instance, a household record will be included in its
own row followed by the person records associated with that
household.

Hierarchical data can be loaded in list format or long format.
read_ipums_micro() will read in long format:

cps_hier_ddi <- read_ipums_ddi(ipums_example("cps_00159.xml"))

read_ipums_micro(cps_hier_ddi)
#> Use of data from IPUMS CPS is subject to conditions including that users should cite the data appropriately. Use command `ipums_conditions()` for more details.
#> # A tibble: 11,053 × 9
#>    RECTYPE     YEAR SERIAL MONTH    ASECWTH STATEFIP PERNUM ASECWT INCTOT       
#>    <chr+lbl>  <dbl>  <dbl> <int+lb>   <dbl> <int+lb>  <dbl>  <dbl> <dbl+lbl>    
#>  1 H [Househ…  1962     80  3 [Mar…   1476. 55 [Wis…     NA    NA  NA           
#>  2 P [Person…  1962     80 NA           NA  NA            1  1476.  4.88e3      
#>  3 P [Person…  1962     80 NA           NA  NA            2  1471.  5.8 e3      
#>  4 P [Person…  1962     80 NA           NA  NA            3  1579.  1.00e9 [Mis…
#>  5 H [Househ…  1962     82  3 [Mar…   1598. 27 [Min…     NA    NA  NA           
#>  6 P [Person…  1962     82 NA           NA  NA            1  1598.  1.40e4      
#>  7 H [Househ…  1962     83  3 [Mar…   1707. 27 [Min…     NA    NA  NA           
#>  8 P [Person…  1962     83 NA           NA  NA            1  1707.  1.66e4      
#>  9 H [Househ…  1962     84  3 [Mar…   1790. 27 [Min…     NA    NA  NA           
#> 10 P [Person…  1962     84 NA           NA  NA            1  1790.  6.38e3      
#> # ℹ 11,043 more rows

The long format consists of a single tibble
that includes rows with varying record types. In this example, some rows
have a record type of “Household” and others have a record type of
“Person”. Variables that do not apply to a particular record type will
be filled with NA in rows of that record type.

To read data in list format, use
read_ipums_micro_list(). This function returns a list where
each element contains all the records for a given record type:

read_ipums_micro_list(cps_hier_ddi)
#> Use of data from IPUMS CPS is subject to conditions including that users should cite the data appropriately. Use command `ipums_conditions()` for more details.
#> $HOUSEHOLD
#> # A tibble: 3,385 × 6
#>    RECTYPE               YEAR SERIAL MONTH     ASECWTH STATEFIP      
#>    <chr+lbl>            <dbl>  <dbl> <int+lbl>   <dbl> <int+lbl>     
#>  1 H [Household Record]  1962     80 3 [March]   1476. 55 [Wisconsin]
#>  2 H [Household Record]  1962     82 3 [March]   1598. 27 [Minnesota]
#>  3 H [Household Record]  1962     83 3 [March]   1707. 27 [Minnesota]
#>  4 H [Household Record]  1962     84 3 [March]   1790. 27 [Minnesota]
#>  5 H [Household Record]  1962    107 3 [March]   4355. 19 [Iowa]     
#>  6 H [Household Record]  1962    108 3 [March]   1479. 19 [Iowa]     
#>  7 H [Household Record]  1962    122 3 [March]   3603. 27 [Minnesota]
#>  8 H [Household Record]  1962    124 3 [March]   4104. 55 [Wisconsin]
#>  9 H [Household Record]  1962    125 3 [March]   2182. 55 [Wisconsin]
#> 10 H [Household Record]  1962    126 3 [March]   1826. 55 [Wisconsin]
#> # ℹ 3,375 more rows
#> 
#> $PERSON
#> # A tibble: 7,668 × 6
#>    RECTYPE            YEAR SERIAL PERNUM ASECWT INCTOT                          
#>    <chr+lbl>         <dbl>  <dbl>  <dbl>  <dbl> <dbl+lbl>                       
#>  1 P [Person Record]  1962     80      1  1476.      4883                       
#>  2 P [Person Record]  1962     80      2  1471.      5800                       
#>  3 P [Person Record]  1962     80      3  1579. 999999998 [Missing. (1962-1964 …
#>  4 P [Person Record]  1962     82      1  1598.     14015                       
#>  5 P [Person Record]  1962     83      1  1707.     16552                       
#>  6 P [Person Record]  1962     84      1  1790.      6375                       
#>  7 P [Person Record]  1962    107      1  4355. 999999999 [N.I.U.]              
#>  8 P [Person Record]  1962    107      2  1386.         0                       
#>  9 P [Person Record]  1962    107      3  1629.       600                       
#> 10 P [Person Record]  1962    107      4  1432. 999999999 [N.I.U.]              
#> # ℹ 7,658 more rows
…
nhgis_ex1 <- ipums_example("nhgis0972_csv.zip")

nhgis_data <- read_nhgis(nhgis_ex1)
#> Use of data from NHGIS is subject to conditions including that users should cite the data appropriately. Use command `ipums_conditions()` for more details.
#> Rows: 71 Columns: 25
#> ── Column specification ────────────────────────────────────────────────────────
#> Delimiter: ","
#> chr  (9): GISJOIN, STUSAB, CMSA, PMSA, PMSAA, AREALAND, AREAWAT, ANPSADPI, F...
#> dbl (13): YEAR, MSA_CMSAA, INTPTLAT, INTPTLNG, PSADC, D6Z001, D6Z002, D6Z003...
#> lgl  (3): DIVISIONA, REGIONA, STATEA
#> 
#> ℹ Use `spec()` to retrieve the full column specification for this data.
#> ℹ Specify the column types or set `show_col_types = FALSE` to quiet this message.
nhgis_data
#> # A tibble: 71 × 25
#>    GISJOIN  YEAR STUSAB CMSA  DIVISIONA MSA_CMSAA PMSA      PMSAA REGIONA STATEA
#>    <chr>   <dbl> <chr>  <chr> <lgl>         <dbl> <chr>     <chr> <lgl>   <lgl> 
#>  1 G0080    1990 OH     28    NA             1692 Akron, O… 0080  NA      NA    
#>  2 G0360    1990 CA     49    NA             4472 Anaheim-… 0360  NA      NA    
#>  3 G0440    1990 MI     35    NA             2162 Ann Arbo… 0440  NA      NA    
#>  4 G0620    1990 IL     14    NA             1602 Aurora--… 0620  NA      NA    
#>  5 G0845    1990 PA     78    NA             6282 Beaver C… 0845  NA      NA    
#>  6 G0875    1990 NJ     70    NA             5602 Bergen--… 0875  NA      NA    
#>  7 G1120    1990 MA     07    NA             1122 Boston, … 1120  NA      NA    
#>  8 G1125    1990 CO     34    NA             2082 Boulder-… 1125  NA      NA    
#>  9 G1145    1990 TX     42    NA             3362 Brazoria… 1145  NA      NA    
#> 10 G1160    1990 CT     70    NA             5602 Bridgepo… 1160  NA      NA    
#> # ℹ 61 more rows
#> # ℹ 15 more variables: AREALAND <chr>, AREAWAT <chr>, ANPSADPI <chr>,
#> #   FUNCSTAT <chr>, INTPTLAT <dbl>, INTPTLNG <dbl>, PSADC <dbl>, D6Z001 <dbl>,
#> #   D6Z002 <dbl>, D6Z003 <dbl>, D6Z004 <dbl>, D6Z005 <dbl>, D6Z006 <dbl>,
#> #   D6Z007 <dbl>, D6Z008 <dbl>
…
However, variable metadata for NHGIS data are slightly different than
those provided by microdata products. First, they come from a .txt
codebook file rather than an .xml DDI file. Codebooks can still be
loaded into an ipums_ddi object, but fields that do not
apply to aggregate data will be empty. In general, NHGIS codebooks
provide only variable labels and descriptions, along with citation
information.

nhgis_cb <- read_nhgis_codebook(nhgis_ex1)

# Most useful metadata for NHGIS is for variable labels:
ipums_var_info(nhgis_cb) %>%
  select(var_name, var_label, var_desc)
#> # A tibble: 25 × 3
#>    var_name  var_label                                                  var_desc
#>    <chr>     <chr>                                                      <chr>   
#>  1 GISJOIN   GIS Join Match Code                                        ""      
#>  2 YEAR      Data File Year                                             ""      
#>  3 STUSAB    State/US Abbreviation                                      ""      
#>  4 CMSA      Consolidated Metropolitan Statistical Area                 ""      
#>  5 DIVISIONA Division Code                                              ""      
#>  6 MSA_CMSAA Metropolitan Statistical Area/Consolidated Metropolitan S… ""      
#>  7 PMSA      Primary Metropolitan Statistical Area Name                 ""      
#>  8 PMSAA     Primary Metropolitan Statistical Area Code                 ""      
#>  9 REGIONA   Region Code                                                ""      
#> 10 STATEA    State Code                                                 ""      
#> # ℹ 15 more rows
…
NHGIS data are most easily handled in .csv format.
read_nhgis() uses readr::read_csv() to handle
the generation of column type specifications. If the guessed
specifications are incorrect, you can use the col_types
argument to adjust. This is most likely to occur for columns that
contain geographic codes that are stored as numeric values:

# Convert MSA codes to character format
read_nhgis(
  nhgis_ex1,
  col_types = c(MSA_CMSAA = "c"),
  verbose = FALSE
)
#> # A tibble: 71 × 25
#>    GISJOIN  YEAR STUSAB CMSA  DIVISIONA MSA_CMSAA PMSA      PMSAA REGIONA STATEA
#>    <chr>   <dbl> <chr>  <chr> <lgl>     <chr>     <chr>     <chr> <lgl>   <lgl> 
#>  1 G0080    1990 OH     28    NA        1692      Akron, O… 0080  NA      NA    
#>  2 G0360    1990 CA     49    NA        4472      Anaheim-… 0360  NA      NA    
#>  3 G0440    1990 MI     35    NA        2162      Ann Arbo… 0440  NA      NA    
#>  4 G0620    1990 IL     14    NA        1602      Aurora--… 0620  NA      NA    
#>  5 G0845    1990 PA     78    NA        6282      Beaver C… 0845  NA      NA    
#>  6 G0875    1990 NJ     70    NA        5602      Bergen--… 0875  NA      NA    
#>  7 G1120    1990 MA     07    NA        1122      Boston, … 1120  NA      NA    
#>  8 G1125    1990 CO     34    NA        2082      Boulder-… 1125  NA      NA    
#>  9 G1145    1990 TX     42    NA        3362      Brazoria… 1145  NA      NA    
#> 10 G1160    1990 CT     70    NA        5602      Bridgepo… 1160  NA      NA    
#> # ℹ 61 more rows
#> # ℹ 15 more variables: AREALAND <chr>, AREAWAT <chr>, ANPSADPI <chr>,
#> #   FUNCSTAT <chr>, INTPTLAT <dbl>, INTPTLNG <dbl>, PSADC <dbl>, D6Z001 <dbl>,
#> #   D6Z002 <dbl>, D6Z003 <dbl>, D6Z004 <dbl>, D6Z005 <dbl>, D6Z006 <dbl>,
#> #   D6Z007 <dbl>, D6Z008 <dbl>
…
nhgis_fwf <- ipums_example("nhgis0730_fixed.zip")

nhgis_fwf_data <- read_nhgis(nhgis_fwf, file_select = matches("ts_nominal"))
#> Use of data from NHGIS is subject to conditions including that users should cite the data appropriately. Use command `ipums_conditions()` for more details.
#> Rows: 84 Columns: 28
#> ── Column specification ────────────────────────────────────────────────────────
#> 
#> chr  (4): GISJOIN, STATE, STATEFP, STATENH
#> dbl (24): A00AA1790, A00AA1800, A00AA1810, A00AA1820, A00AA1830, A00AA1840, ...
#> 
#> ℹ Use `spec()` to retrieve the full column specification for this data.
#> ℹ Specify the column types or set `show_col_types = FALSE` to quiet this message.
nhgis_fwf_data
#> # A tibble: 84 × 28
#>    GISJOIN STATE         STATEFP STATENH A00AA1790 A00AA1800 A00AA1810 A00AA1820
#>    <chr>   <chr>         <chr>   <chr>       <dbl>     <dbl>     <dbl>     <dbl>
#>  1 G010    Alabama       01      010            NA        NA        NA    127901
#>  2 G020    Alaska        02      020            NA        NA        NA        NA
#>  3 G025    Alaska Terri… <NA>    025            NA        NA        NA        NA
#>  4 G040    Arizona       04      040            NA        NA        NA        NA
#>  5 G045    Arizona Terr… <NA>    045            NA        NA        NA        NA
#>  6 G050    Arkansas      05      050            NA        NA        NA        NA
#>  7 G055    Arkansas Ter… <NA>    055            NA        NA        NA     14273
#>  8 G060    California    06      060            NA        NA        NA        NA
#>  9 G080    Colorado      08      080            NA        NA        NA        NA
#> 10 G085    Colorado Ter… <NA>    085            NA        NA        NA        NA
#> # ℹ 74 more rows
#> # ℹ 20 more variables: A00AA1830 <dbl>, A00AA1840 <dbl>, A00AA1850 <dbl>,
#> #   A00AA1860 <dbl>, A00AA1870 <dbl>, A00AA1880 <dbl>, A00AA1890 <dbl>,
#> #   A00AA1900 <dbl>, A00AA1910 <dbl>, A00AA1920 <dbl>, A00AA1930 <dbl>,
#> #   A00AA1940 <dbl>, A00AA1950 <dbl>, A00AA1960 <dbl>, A00AA1970 <dbl>,
#> #   A00AA1980 <dbl>, A00AA1990 <dbl>, A00AA2000 <dbl>, A00AA2010 <dbl>,
#> #   A00AA2020 <dbl>
…
