Big IPUMS data
…
Though dbplyr shows us a nice preview of the first rows of the result of our query, the data still lives in the database. When using a regular database, in general you’d use the function dplyr::collect() to load in the full results of the query to your R session. However, the database has no concept of IPUMS attributes like value and variable labels, so if you want them, you can use ipums_collect() like so:

example %>%
  filter('AGE' > 25) %>%
  ipums_collect(ddi)
#> # A tibble: 204,983 x 14
#>     YEAR SERIAL HWTSUPP   CPSID ASECFLAG FOODSTMP MONTH   PERNUM  CPSIDP
#>    <dbl>  <dbl>   <dbl>   <dbl> <int+lb> <int+lb> <int+l>  <dbl>   <dbl>
#>  1  2011      2    545. 2.01e13 1 [ASEC] 1 [No]   3 [Mar~      1 2.01e13
#>  2  2011      3    475. 2.01e13 1 [ASEC] 1 [No]   3 [Mar~      1 2.01e13
#>  3  2011      3    475. 2.01e13 1 [ASEC] 1 [No]   3 [Mar~      2 2.01e13
#>  4  2011      4    548. 2.01e13 1 [ASEC] 1 [No]   3 [Mar~      1 2.01e13
#>  5  2011      4    548. 2.01e13 1 [ASEC] 1 [No]   3 [Mar~      2 2.01e13
#>  6  2011      5    475. 2.01e13 1 [ASEC] 1 [No]   3 [Mar~      1 2.01e13
#>  7  2011      6    298. 2.01e13 1 [ASEC] 1 [No]   3 [Mar~      1 2.01e13
#>  8  2011      6    298. 2.01e13 1 [ASEC] 1 [No]   3 [Mar~      2 2.01e13
#>  9  2011      6    298. 2.01e13 1 [ASEC] 1 [No]   3 [Mar~      3 2.01e13
#> 10  2011      6    298. 2.01e13 1 [ASEC] 1 [No]   3 [Mar~      4 2.01e13
#> # ... with 204,973 more rows, and 5 more variables: WTSUPP <dbl>,
#> #   AGE <int+lbl>, EMPSTAT <int+lbl>, AHRSWORKT <dbl+lbl>,
#> #   HEALTH <int+lbl>
…
